government = tribal
add_government_reform = monstrous_horde
government_rank = 1
primary_culture = green_orc
religion = great_dookan
technology_group = tech_orcish
capital = 789

1433.5.21 = {
	monarch = {
		name = "Ugol"
		dynasty = "Rotcleaver"
		birth_date = 1410.1.14
		adm = 0
		dip = 1
		mil = 3
	}
}