namespace = magic_realm_conjuration


#Conjuration - Menu
country_event = {
	id = magic_realm_conjuration.0
	title = magic_realm_conjuration.0.t	
	desc = magic_realm_conjuration.0.d
	picture = BIG_BOOK_eventPicture
	
	is_triggered_only = yes
	
	option = {	
		name = magic_realm_nospells.0.a
		trigger = {
			NOT = { has_ruler_flag = conjuration_1 }
			NOT = { has_ruler_flag = conjuration_2 }
			NOT = { has_ruler_flag = conjuration_3 }
		}
		ai_chance = {
			factor = 50
		}
		
		country_event = { id = magic_realm.0 days = 0 }
	}
	
	option = {	#Host Magnificent Feast
		name = magic_realm_conjuration.1.t
		trigger = {
			has_ruler_flag = conjuration_1
		}
		ai_chance = {
			factor = 50
			modifier = {
				factor = 2
				personality = ai_diplomat
			}
			modifier = {
				factor = 2
				NOT = { prestige = 20 }
			}
			modifier = {
				factor = 0
				OR = {
					has_ruler_modifier = magic_realm_conjuration_magnificent_feast_1
					has_ruler_modifier = magic_realm_conjuration_magnificent_feast_2
				}
			}
		}
		
		country_event = { id = magic_realm_conjuration.1 days = 0 }
		
		custom_tooltip = tooltip_option_conjuration_1
	}
	
	# option = {	#Summon the Supernatural
		# name = magic_realm_conjuration.2.t
		# trigger = {
			# has_ruler_flag = conjuration_2
		# }
		# ai_chance = {
			# factor = 50
		# }
		
		# add_ruler_modifier = {
			# name = ruler_studying_magic
			# duration = 3650	#3650
			
		# }
		
		# set_ruler_flag = ruler_studying_abjuration
		
		# custom_tooltip = tooltip_option_conjuration_2
	# }
	
	
	
	option = {	#Conjure Magical Fortress 3
		name = magic_realm_conjuration.3.t
		trigger = {
			has_ruler_flag = conjuration_3
		}
		ai_chance = {
			factor = 50
			modifier = {
				factor = 5
				is_at_war = yes
				NOT = { war_score = 20 }
			}
			modifier = {
				factor = 4
				OR = {
					personality = ai_militarist
					personality = ai_capitalist 
				}
			}
		}
		
		country_event = { id = magic_realm_conjuration.3 days = 0 }
		
		custom_tooltip = tooltip_option_conjuration_3
	}
	
	option = {
		name = magic_siege.goback
		ai_chance = {
			factor = 5
		}
		country_event = { id = magic_realm.0 days = 0 }
	}
}

#Host Magical Feast
country_event = {
	id = magic_realm_conjuration.1
	title = magic_realm_conjuration.1.t
	desc = magic_realm_conjuration.1.d
	picture = KING_DOING_GREAT_eventPicture
	
	is_triggered_only = yes
	
	option = {
		name = magic_realm_unavailable.0.a
		trigger = {
			OR = {
				has_ruler_modifier = magic_realm_conjuration_magnificent_feast_1
				has_ruler_modifier = magic_realm_conjuration_magnificent_feast_2
			}
		}
		custom_tooltip = tooltip_magic_realm_unavailable_cooldown
		country_event = { id = magic_realm_conjuration.0 days = 0 }
	}
	
	option = {	#level 1
		name = magic_realm_conjuration.1.a
		trigger = {
			has_ruler_flag = conjuration_1
			AND = {
				NOT = { has_ruler_modifier = magic_realm_conjuration_magnificent_feast_1 }
				NOT = { has_ruler_modifier = magic_realm_conjuration_magnificent_feast_2 }
			}
		}
		ai_chance = {
			factor = 50
		}
		
		#Costs
		add_adm_power = -20
		add_mil_power = -15
		
		magic_casted_spell = yes
		
		
		add_ruler_modifier = {
			name = magic_realm_conjuration_magnificent_feast_1
			duration = 365
		}
	}
	
	option = {	#level 2 - magnificent mansion
		name = magic_realm_conjuration.1.b
		trigger = {
			has_ruler_flag = conjuration_2
			AND = {
				NOT = { has_ruler_modifier = magic_realm_conjuration_magnificent_feast_1 }
				NOT = { has_ruler_modifier = magic_realm_conjuration_magnificent_feast_2 }
			}
		}
		ai_chance = {
			factor = 50
			modifier = {
				factor = 2
				NOT = { num_of_free_diplomatic_relations  = 1 }
			}
		}
		
		#Costs
		add_adm_power = -20
		add_mil_power = -25
		
		magic_casted_spell = yes
		
		#Effect
		add_ruler_modifier = {
			name = magic_realm_conjuration_magnificent_feast_2
			duration = 365
		}
		
		custom_tooltip = tooltip_option_conjuration_2
	}
	
	option = {	#Option B: Go back
		name = magic_siege.goback
		ai_chance = {
			factor = 50
		}
		country_event = { id = magic_realm_conjuration.0 days = 0 }
	}
	
}

#Summon the Supernatural - UNUSED
country_event = {
	id = magic_realm_conjuration.2
	title = magic_realm_conjuration.2.t
	desc = magic_realm_conjuration.2.d
	picture = KING_DOING_GREAT_eventPicture
	
	is_triggered_only = yes
	
	option = {
		name = magic_realm_unavailable.0.a
		trigger = {
			OR = {
				has_ruler_flag = conjuration_1
				has_ruler_flag = conjuration_2
			}
			OR = {
				has_ruler_modifier = magic_realm_conjuration_magnificent_feast_1
				has_ruler_modifier = magic_realm_conjuration_magnificent_feast_2
			}
		}
		custom_tooltip = tooltip_magic_realm_unavailable_cooldown
		country_event = { id = magic_realm_conjuration.0 days = 0 }
	}
	
	option = {	#Find a Supernatural Contact
		name = magic_realm_conjuration.1.a
		trigger = {
			has_ruler_flag = conjuration_1
			NOT = { has_ruler_flag = magic_project_supernatural_finding_contact }
		}
		ai_chance = {
			factor = 50
		}
		
		#Costs
		add_adm_power = -20
		add_dip_power = -5
		
		magic_casted_spell = yes
		
		
		add_ruler_modifier = {
			name = magic_realm_conjuration_magnificent_feast_1
			duration = 365
		}
	}
	
	option = {	#Conjure a Fey
		name = magic_project_supernatural_fey.0.t
		highlight = yes
		trigger = {
			has_ruler_flag = conjuration_2
			has_ruler_flag = magic_project_supernatural_fey
		}
		ai_chance = {
			factor = 50
		}
		
		#Costs
		add_adm_power = -20
		add_dip_power = -25
		
		magic_casted_spell = yes
		
		country_event = { id = magic_project_supernatural_fey.0 days = 0}
		
	}
	
	option = {	#Conjure a Fiend
		name = magic_project_supernatural_fiend.0.t
		highlight = yes
		trigger = {
			has_ruler_flag = conjuration_2
			#has_ruler_flag = magic_project_supernatural_fiend
		}
		ai_chance = {
			factor = 50
		}
		
		#Costs
		add_adm_power = -20
		add_dip_power = -25
		
		magic_casted_spell = yes
		
		country_event = { id = magic_project_supernatural_fiend.0 days = 0}
		
	}
	
	option = {	#Conjure a Celestial
		name = magic_project_supernatural_celestial.0.t
		highlight = yes
		trigger = {
			has_ruler_flag = conjuration_2
			has_ruler_flag = magic_project_supernatural_celestial
		}
		ai_chance = {
			factor = 50
		}
		
		#Costs
		add_adm_power = -20
		add_dip_power = -25
		
		magic_casted_spell = yes
		
		country_event = { id = magic_project_supernatural_celestial.0 days = 0}
		
	}
	
	option = {	#Conjure an Emissary of the Dark Descendants
		name = magic_project_supernatural_dark_descendant.0.t
		highlight = yes
		trigger = {
			has_ruler_flag = conjuration_2
			has_ruler_flag = magic_project_supernatural_dark_descendant
		}
		ai_chance = {
			factor = 50
		}
		
		#Costs
		add_adm_power = -20
		add_dip_power = -25
		
		magic_casted_spell = yes
		
		country_event = { id = magic_project_supernatural_dark_descendant.0 days = 0}
		
	}
	
	option = {	#Option B: Go back
		name = magic_siege.goback
		ai_chance = {
			factor = 50
		}
		country_event = { id = magic_realm_conjuration.0 days = 0 }
	}
	
}

#Conjure Magical Fortress
country_event = {
	id = magic_realm_conjuration.3
	title = magic_realm_conjuration.3.t
	desc = magic_realm_conjuration.3.d
	picture = KING_DOING_GREAT_eventPicture
	
	is_triggered_only = yes
	
	immediate = {
		hidden_effect = {
			 random_owned_province = {
				 limit = {
					 NOT = { has_building = fort_magic }
					 is_core = ROOT
					 is_city = yes
				 }
				 save_event_target_as = fort_magic_province_1
			 }
			 random_owned_province = {	#random province
				 limit = {
					 NOT = { has_building = fort_magic }
					 is_core = ROOT
					 is_city = yes
					 is_in_capital_area = yes
				 }
				 save_event_target_as = fort_magic_province_1
			 }
			 random_owned_province = {
				 limit = {
					 NOT = { has_building = fort_magic }
					 is_core = ROOT
					 is_city = yes
				 }
				 save_event_target_as = fort_magic_province_2
			 }
			 random_owned_province = {	#province with fort
				 limit = {
					 NOT = { has_building = fort_magic }
					 is_core = ROOT
					 is_city = yes
					 fort_level = 3
				 }
				 save_event_target_as = fort_magic_province_2
			 }
			 random_owned_province = {
				 limit = {
					 NOT = { has_building = fort_magic }
					 is_core = ROOT
					 is_city = yes
				 }
				 save_event_target_as = fort_magic_province_3
			 }
			 random_owned_province = {	#high dev
				 limit = {
					 NOT = { has_building = fort_magic }
					 is_core = ROOT
					 is_city = yes
					 development = 12
				 }
				 save_event_target_as = fort_magic_province_3
			 }
		}
	}
	
	option = {
		name = magic_realm_conjuration.3.cost
		trigger = {
			OR = {
				NOT = { adm_power = 100 }
				NOT = { dip_power = 100 }
				NOT = { mil_power = 100 }
			}
		}
		country_event = { id = magic_realm_conjuration.0 days = 0 }
	}
	
	#1
	option = {
		name = magic_realm_conjuration.3.a
		trigger = {
			has_ruler_flag = conjuration_3
			
			adm_power = 100
			dip_power = 100
			mil_power = 100
		}
		ai_chance = {
			factor = 50
		}
		
		#Costs
		add_adm_power = -100
		add_dip_power = -100
		add_mil_power = -100
		
		magic_casted_spell = yes
		
		
		event_target:fort_magic_province_1 = {
			add_building_construction = {
				building = fort_magic
				speed = 0.5
				cost = 0
			}
		}
	}
	
	#2
	option = {
		name = magic_realm_conjuration.3.b
		trigger = {
			has_ruler_flag = conjuration_3
			
			adm_power = 100
			dip_power = 100
			mil_power = 100
		}
		ai_chance = {
			factor = 50
		}
		
		#Costs
		add_adm_power = -100
		add_dip_power = -100
		add_mil_power = -100
		
		magic_casted_spell = yes
		
		
		event_target:fort_magic_province_2 = {
			add_building_construction = {
				building = fort_magic
				speed = 0.5
				cost = 0
			}
		}
	}
	
	#3
	option = {
		name = magic_realm_conjuration.3.c
		trigger = {
			has_ruler_flag = conjuration_3
			
			adm_power = 100
			dip_power = 100
			mil_power = 100
		}
		ai_chance = {
			factor = 50
		}
		
		#Costs
		add_adm_power = -100
		add_dip_power = -100
		add_mil_power = -100
		
		magic_casted_spell = yes
		
		
		event_target:fort_magic_province_3 = {
			add_building_construction = {
				building = fort_magic
				speed = 0.5
				cost = 0
			}
		}
	}
	
	option = {	#Option B: Go back
		name = magic_siege.goback
		ai_chance = {
			factor = 5
		}
		country_event = { id = magic_realm_conjuration.0 days = 0 }
	}
	
}